…
The `instacart` dataset contains 1384617 rows and 15 columns, and each
row represents an item from an order. The variables include order id,
product id, product name, number identifier of the item in the order,
whether the item is a reorder, and user id. There is also information on
the day and time of the order, and number of days since prior order,
location of the aisle and department with their corresponding id. In
total, there are 39123 products found in 131209 orders from 131209
distinct users.

``` r
instacart |> 
  count(aisle)
```

    ## # A tibble: 134 × 2
    ##    aisle                      n
    ##    <chr>                  <int>
    ##  1 air fresheners candles  1067
    ##  2 asian foods             7007
    ##  3 baby accessories         306
    ##  4 baby bath body care      328
    ##  5 baby food formula      13198
    ##  6 bakery desserts         1501
    ##  7 baking ingredients     13088
    ##  8 baking supplies decor   1094
    ##  9 beauty                   287
    ## 10 beers coolers           1839
    ## # ℹ 124 more rows
